TestCfg,EncodeMethod,CodecName,EncodePreset,Class,Name,OrigRes,FPS,BitDepth,CodedRes,QP,Bitrate(kbps),PSNR_Y,PSNR_U,PSNR_V,SSIM_Y(dB),MS-SSIM_Y(dB),VMAF_Y,VMAF_Y-NEG,PSNR-HVS,CIEDE2000,APSNR_Y,APSNR_U,APSNR_V,CAMBI,EncT[s],DecT[s],EncInstr,DecInstr,EncCycles,DecCycles,EncMD5,DecMD5
AS,aom,av2,0,A1,BoxingPractice,3840x2160,60.0000,10,3840x2160,110,20811.653577,42.387381,48.763790,48.732119,29.254815,20.328261,99.975559,99.923458,43.009897,43.276957,42.328200,48.732329,48.701076,0.934877,,,,,,,8f6cace7cbb45bffc653e8ce81dc139c,
AS,aom,av2,0,A1,BoxingPractice,3840x2160,60.0000,10,3840x2160,135,7622.221471,41.555023,47.585201,47.461890,27.441220,19.564682,99.787424,97.772348,41.471780,42.415556,41.535807,47.569114,47.443851,1.078314,,,,,,,35f96dc1e89d68ec2a5abe802519bde7,
AS,aom,av2,0,A1,BoxingPractice,3840x2160,60.0000,10,3840x2160,160,3054.235611,40.315461,46.081346,45.777065,25.134354,18.500560,95.593465,92.939075,39.207708,41.276162,40.299130,46.065014,45.760710,1.135034,,,,,,,ec2fc52aa4412bca68f65ea1cd10e409,
AS,aom,av2,0,A1,BoxingPractice,3840x2160,60.0000,10,3840x2160,185,1477.472681,38.353271,44.081529,43.735637,21.971773,16.818070,86.706706,83.798447,36.057727,39.633281,38.328267,44.062085,43.716337,1.139551,,,,,,,e105f2b8bc5eb067a4659de092e40ce2,
AS,aom,av2,0,A1,BoxingPractice,3840x2160,60.0000,10,3840x2160,210,706.551295,35.631849,41.664435,41.391692,18.308633,14.563542,71.813921,68.735084,32.371170,37.456244,35.599931,41.641351,41.373613,1.248676,,,,,,,fe3c2de8de4eac683a1278912d1d1b95,
AS,aom,av2,0,A1,BoxingPractice,3840x2160,60.0000,10,3840x2160,235,331.636364,32.483124,39.013028,39.020076,14.594628,12.074268,51.926117,49.021840,28.630123,34.914498,32.447318,38.991478,38.997710,1.196767,,,,,,,fbcff137abf570584b51c5e0b26c8af0,
AS,aom,av2,0,A1,BoxingPractice,3840x2160,60.0000,10,2560x1440,110,10391.522324,41.562826,47.135782,47.222622,28.282447,19.864515,99.950360,98.267212,42.100091,42.451457,41.545984,47.123431,47.207333,1.149991,,,,,,,110ef02f6e96779280f26b5ff2565591,
AS,aom,av2,0,A1,BoxingPractice,3840x2160,60.0000,10,2560x1440,135,4264.110044,40.688673,46.135795,46.036011,26.318298,19.014538,97.484819,94.815169,40.274915,41.617508,40.675908,46.124041,46.021069,1.123554,,,,,,,c2744106b65229a8493f08d5382912cf,
AS,aom,av2,0,A1,BoxingPractice,3840x2160,60.0000,10,2560x1440,160,1982.485207,39.166466,44.666191,44.394279,23.531247,17.632582,91.027360,88.026090,37.507055,40.337493,39.146757,44.650280,44.379057,1.213226,,,,,,,6d01f8aaa17529ba584b4481d237e139,
AS,aom,av2,0,A1,BoxingPractice,3840x2160,60.0000,10,2560x1440,185,966.211635,36.904017,42.764518,42.389478,20.080992,15.658653,79.285452,76.103223,34.094315,38.554397,36.876022,42.746435,42.367677,1.244372,,,,,,,91f1c8a60fa6b81957259a15d075ca06,
AS,aom,av2,0,A1,BoxingPractice,3840x2160,60.0000,10,2560x1440,210,452.645201,33.979331,40.464208,40.123050,16.358363,13.253918,61.732023,58.580735,30.374845,36.279040,33.945278,40.445144,40.100032,1.233942,,,,,,,c845b283c5578b279ea91ab51697d8fe,
AS,aom,av2,0,A1,BoxingPractice,3840x2160,60.0000,10,2560x1440,235,207.779912,30.817580,37.912393,37.982869,12.801706,10.834729,40.876506,38.172815,26.809453,33.699499,30.784402,37.901074,37.962593,1.258016,,,,,,,fb507bf65a10b4eafab36770930dec2f,
AS,aom,av2,0,A1,BoxingPractice,3840x2160,60.0000,10,1920x1080,110,6913.228310,40.635883,45.967153,45.811653,27.525845,19.377292,98.067583,95.519130,41.084084,41.741516,40.626446,45.960083,45.800533,1.240721,,,,,,,83f3cb60e8c918638dcb526fad1b3f0e,
AS,aom,av2,0,A1,BoxingPractice,3840x2160,60.0000,10,1920x1080,135,3065.626066,39.705801,45.077645,44.777259,25.325689,18.422168,93.983194,91.118426,39.044944,40.899787,39.693353,45.068635,44.763982,1.293674,,,,,,,800180a7e0e823b5bf356f1aeaedf0b7,
AS,aom,av2,0,A1,BoxingPractice,3840x2160,60.0000,10,1920x1080,160,1469.626988,38.065948,43.661045,43.250915,22.237460,16.837841,85.875380,82.716096,36.057718,39.540536,38.044589,43.647753,43.237614,1.373219,,,,,,,8875e2b2458d326a5d968daa43e6e247,
AS,aom,av2,0,A1,BoxingPractice,3840x2160,60.0000,10,1920x1080,185,708.284946,35.695356,41.800568,41.377546,18.680986,14.737347,71.826773,68.709342,32.593141,37.680582,35.665806,41.783409,41.360802,1.423580,,,,,,,4ba3bc2551a70aef624cdbfa0ca1815d,
AS,aom,av2,0,A1,BoxingPractice,3840x2160,60.0000,10,1920x1080,210,327.829709,32.750681,39.554306,39.292615,14.972486,12.295784,53.138924,50.166856,28.965734,35.364616,32.717639,39.536143,39.271318,1.425072,,,,,,,b38ce3eba48bbe539e5963d6cc251785,
AS,aom,av2,0,A1,BoxingPractice,3840x2160,60.0000,10,1920x1080,235,146.644740,29.598291,37.191041,37.161070,11.559625,9.945248,32.346142,29.900354,25.522153,32.781533,29.565127,37.179263,37.145369,1.351378,,,,,,,36eb45822281b2446cb75459b491f11c,
AS,aom,av2,0,A1,BoxingPractice,3840x2160,60.0000,10,1280x720,110,4023.169446,38.365984,44.530436,43.878188,26.005646,18.086494,90.374246,87.748867,37.548982,40.448076,38.360668,44.525369,43.868746,1.301152,,,,,,,f03047f1128d5aae35dee9e8ff1fda59,
AS,aom,av2,0,A1,BoxingPractice,3840x2160,60.0000,10,1280x720,135,1957.819411,37.507851,43.693294,43.008115,23.522284,17.040520,84.462873,81.665272,35.830158,39.591362,37.497080,43.685517,42.997151,1.413550,,,,,,,78ed31cb90be34bfb69f032d6129113a,
AS,aom,av2,0,A1,BoxingPractice,3840x2160,60.0000,10,1280x720,160,950.627219,35.988266,42.312789,41.693475,20.220985,15.385404,73.790640,70.854207,33.289754,38.215541,35.968476,42.301668,41.681876,1.460969,,,,,,,0df7f0eaf5b74cb9c96a6f828745ef94,
AS,aom,av2,0,A1,BoxingPractice,3840x2160,60.0000,10,1280x720,185,454.198110,33.749549,40.579396,40.056699,16.658739,13.289429,57.643383,54.877708,30.234790,36.366043,33.721407,40.562986,40.043847,1.448754,,,,,,,6898cd3541a384d2382cabff5d246650,
AS,aom,av2,0,A1,BoxingPractice,3840x2160,60.0000,10,1280x720,210,204.921233,30.940524,38.410077,38.147668,13.096068,10.967578,38.623886,36.247793,26.957642,34.054430,30.908807,38.392008,38.131235,1.536943,,,,,,,d59e07c1d6fdd0ad8ce32cdd88a925ec,
AS,aom,av2,0,A1,BoxingPractice,3840x2160,60.0000,10,1280x720,235,90.138784,27.950003,36.309934,36.322207,9.949093,8.804004,19.905793,18.141077,23.843380,31.569472,27.917884,36.302566,36.316434,1.376207,,,,,,,c081a6cff5e3b7d788220f10867b5089,
AS,aom,av2,0,A1,BoxingPractice,3840x2160,60.0000,10,960x540,110,2908.922462,36.253102,43.472024,42.583208,24.940820,16.488542,79.201473,76.537916,33.793155,39.253809,36.249011,43.467587,42.575252,1.397531,,,,,,,03e86a7b87f3adb1792b11cd53104c50,
AS,aom,av2,0,A1,BoxingPractice,3840x2160,60.0000,10,960x540,135,1457.498809,35.577756,42.685488,41.833855,22.224249,15.576822,72.426373,69.728314,32.717665,38.450029,35.569690,42.678957,41.824121,1.476725,,,,,,,febcf575d7380d13b44f91e9324639b7,
AS,aom,av2,0,A1,BoxingPractice,3840x2160,60.0000,10,960x540,160,701.217552,34.296722,41.403109,40.677298,18.819500,14.107922,60.743775,58.053353,30.907092,37.149657,34.280476,41.391690,40.664357,1.524952,,,,,,,050a07d2d65d525c7d82db0b29f61550,
AS,aom,av2,0,A1,BoxingPractice,3840x2160,60.0000,10,960x540,185,333.886421,32.317911,39.737028,39.166902,15.285115,12.203080,45.015358,42.537115,28.467349,35.396406,32.292953,39.722070,39.150766,1.517901,,,,,,,0bf05f0a17f2e18bfed183f082996efe,
AS,aom,av2,0,A1,BoxingPractice,3840x2160,60.0000,10,960x540,210,151.830938,29.752584,37.677934,37.596340,11.938684,10.108786,27.880806,25.937320,25.660207,33.225652,29.722906,37.665525,37.581704,1.554684,,,,,,,fb9212ee1a46d9252d7802d323fcecea,
AS,aom,av2,0,A1,BoxingPractice,3840x2160,60.0000,10,960x540,235,67.996004,26.935437,35.762103,35.876006,8.963533,8.100868,10.819928,9.729538,22.839030,30.687896,26.903229,35.755988,35.867903,1.508595,,,,,,,432e29caf0831754beb3cc0c2398bddf,
AS,aom,av2,0,A1,BoxingPractice,3840x2160,60.0000,10,640x360,110,1732.754630,33.236690,42.023720,41.085544,21.614757,13.863179,53.212933,51.039861,29.248856,37.337618,33.233742,42.019367,41.078641,1.449686,,,,,,,a99eb543ac0fd40b76d2f1a0598c0bab,
AS,aom,av2,0,A1,BoxingPractice,3840x2160,60.0000,10,640x360,135,885.973104,32.759306,41.309829,40.458589,19.286656,13.195295,46.425256,44.329391,28.694750,36.642195,32.753811,41.303838,40.450966,1.521655,,,,,,,50f595fc753f158a1f1e9090df21ec9c,
AS,aom,av2,0,A1,BoxingPractice,3840x2160,60.0000,10,640x360,160,429.473296,31.787635,40.116831,39.394970,16.271197,12.076426,35.887748,33.953769,27.626256,35.490368,31.775708,40.106864,39.385810,1.573016,,,,,,,fe6335692c20f732071fc541f8859b6e,
AS,aom,av2,0,A1,BoxingPractice,3840x2160,60.0000,10,640x360,185,204.342119,30.178561,38.581182,38.068629,13.129442,10.547577,22.683799,21.278917,25.958723,33.866727,30.158061,38.569345,38.054704,1.642374,,,,,,,c121d5f3db9d26b062f1a845c072aa64,
AS,aom,av2,0,A1,BoxingPractice,3840x2160,60.0000,10,640x360,210,91.817106,27.921747,36.877099,36.678768,10.142567,8.799552,10.381611,9.471271,23.751435,31.804038,27.893584,36.866094,36.669810,1.543620,,,,,,,49f2138c9bb9aa4b90727bac19cceff5,
AS,aom,av2,0,A1,BoxingPractice,3840x2160,60.0000,10,640x360,235,41.932222,25.348977,34.924116,34.720372,7.557342,7.102352,0.174706,0.106187,21.313799,29.233012,25.319995,34.918426,34.712946,1.327156,,,,,,,94af3643b38d84dcbcdae8ec6968aa9a,
AS,aom,av2,0,A1,Crosswalk,3840x2160,60.0000,10,3840x2160,110,19320.389149,42.783521,48.801487,52.248104,28.389788,20.049378,95.489632,93.599453,43.127048,43.691683,42.733550,48.781341,52.234131,0.327880,,,,,,,72a0e1d7cd6e65a9c88068f337007c02,
AS,aom,av2,0,A1,Crosswalk,3840x2160,60.0000,10,3840x2160,135,6249.273188,42.092545,48.103374,51.270119,25.774358,19.148561,90.731944,88.561415,41.518047,43.013467,42.079945,48.096353,51.259609,0.351789,,,,,,,f7dd334fe69aefa8ff89bfa2888675b7,
AS,aom,av2,0,A1,Crosswalk,3840x2160,60.0000,10,3840x2160,160,2455.358795,41.038103,47.079987,49.782958,22.595361,17.901668,82.274963,79.947325,39.377984,42.016835,41.015248,47.070614,49.763394,0.362123,,,,,,,a62eba12ef11edb82381d19ebb328b93,
AS,aom,av2,0,A1,Crosswalk,3840x2160,60.0000,10,3840x2160,185,1143.342811,39.422393,45.564117,47.734586,19.118530,16.239637,69.035780,66.782285,36.785133,40.533993,39.378028,45.547576,47.699765,0.392475,,,,,,,22beb3ea5051860256f38fc8c13a617e,
AS,aom,av2,0,A1,Crosswalk,3840x2160,60.0000,10,3840x2160,210,534.960424,37.128650,43.451118,45.217747,15.561200,14.194058,51.407902,49.190979,33.813471,38.473868,37.061700,43.426685,45.178069,0.431804,,,,,,,66d91025a2224edd1f6fe7e60d8c31ea,
AS,aom,av2,0,A1,Crosswalk,3840x2160,60.0000,10,3840x2160,235,254.879889,34.254583,40.674260,42.009484,12.131503,11.914658,30.872658,29.337060,30.602811,35.736954,34.171036,40.641757,41.952031,0.453830,,,,,,,a4a7fea77f9fffc0443bfcd532919b6c,
AS,aom,av2,0,A1,Crosswalk,3840x2160,60.0000,10,2560x1440,110,9203.584108,42.393643,48.432112,51.772133,27.011916,19.559833,93.214526,91.129252,42.262117,43.321258,42.380651,48.422594,51.761892,0.335684,,,,,,,ed8eafb4d50ff50af954e555233ea507,
AS,aom,av2,0,A1,Crosswalk,3840x2160,60.0000,10,2560x1440,135,3424.676247,41.573431,47.650533,50.652603,24.176042,18.527486,87.016494,84.612082,40.419982,42.550901,41.558315,47.643129,50.638771,0.337774,,,,,,,40a010620a6c9c636481b66a1392a032,
AS,aom,av2,0,A1,Crosswalk,3840x2160,60.0000,10,2560x1440,160,1550.204872,40.249410,46.438158,48.945611,20.793265,17.074233,76.380692,73.818720,38.049624,41.348747,40.215663,46.424405,48.918567,0.380034,,,,,,,0a7dacae63c2c90915d5b3359a4459f3,
AS,aom,av2,0,A1,Crosswalk,3840x2160,60.0000,10,2560x1440,185,725.518174,38.322751,44.740917,46.714212,17.308861,15.240958,60.605220,58.261654,35.305069,39.639523,38.266983,44.720379,46.673411,0.422877,,,,,,,eb0d7cacf894beede3e3d3fafd5038d8,
AS,aom,av2,0,A1,Crosswalk,3840x2160,60.0000,10,2560x1440,210,338.611542,35.794398,42.487266,44.022419,13.920246,13.138511,42.342586,40.094616,32.296818,37.381009,35.718020,42.464038,43.981378,0.434302,,,,,,,ca4444ad0df629d8800a2ac2b947ac2d,
AS,aom,av2,0,A1,Crosswalk,3840x2160,60.0000,10,2560x1440,235,156.570814,32.802864,39.777989,41.005984,10.771589,10.931879,22.475112,21.026461,29.122935,34.593468,32.716123,39.751123,40.951680,0.534152,,,,,,,d1e3b7192bab3a1cf1b8869384393509,
AS,aom,av2,0,A1,Crosswalk,3840x2160,60.0000,10,1920x1080,110,5869.153616,42.081521,48.128950,51.372733,25.933736,19.162523,90.965223,88.702395,41.540268,43.029392,42.071128,48.122242,51.362072,0.363899,,,,,,,2ec2754e6711d8f22bb24183e8deb675,
AS,aom,av2,0,A1,Crosswalk,3840x2160,60.0000,10,1920x1080,135,2467.900100,41.113632,47.256820,50.118941,22.926800,18.008139,83.502867,80.934121,39.538450,42.150192,41.092771,47.248343,50.100759,0.389141,,,,,,,73575917e7c150e3b47b2ce98e9620d7,
AS,aom,av2,0,A1,Crosswalk,3840x2160,60.0000,10,1920x1080,160,1128.230539,39.573783,45.901416,48.294836,19.476140,16.410871,71.188633,68.538420,37.026539,40.784629,39.531940,45.885500,48.264749,0.437956,,,,,,,90d9fa3b6a5ec300576450abaf91510a,
AS,aom,av2,0,A1,Crosswalk,3840x2160,60.0000,10,1920x1080,185,527.786060,37.426847,44.159027,45.954625,16.022229,14.478146,53.842855,51.507038,34.199700,38.934894,37.362129,44.139853,45.906024,0.489071,,,,,,,a079434a7b045e86acdd3f808357d7bf,
AS,aom,av2,0,A1,Crosswalk,3840x2160,60.0000,10,1920x1080,210,243.673865,34.737080,41.750349,43.260571,12.756652,12.350248,34.536703,32.573101,31.155945,36.524874,34.656092,41.723790,43.212060,0.529194,,,,,,,7f64cb8d2c38f6a76cb6be9f0d38d760,
AS,aom,av2,0,A1,Crosswalk,3840x2160,60.0000,10,1920x1080,235,111.127027,31.689533,39.145537,40.344104,9.801404,10.216337,17.748234,16.411364,28.028068,33.664063,31.605700,39.122062,40.281203,0.622715,,,,,,,e160927f581f9943055ee242df841887,
AS,aom,av2,0,A1,Crosswalk,3840x2160,60.0000,10,1280x720,110,3337.182202,41.482450,47.566422,50.667259,24.224202,18.469147,85.870896,83.440710,40.288009,42.505136,41.469092,47.559064,50.652984,0.391304,,,,,,,d8ff15f33cd64ac793f53b3e228e617f,
AS,aom,av2,0,A1,Crosswalk,3840x2160,60.0000,10,1280x720,135,1563.096596,40.286835,46.534940,49.214163,21.055797,17.142213,76.378866,73.725872,38.125130,41.449427,40.256359,46.521835,49.191154,0.426134,,,,,,,c155542f47f7b119e248346f393456da,
AS,aom,av2,0,A1,Crosswalk,3840x2160,60.0000,10,1280x720,160,721.479136,38.448942,45.021328,47.152972,17.583206,15.375556,61.947911,59.276224,35.480111,39.849521,38.396012,45.003958,47.113187,0.496715,,,,,,,68e7797f56aca19d88a4dfc76e9193e5,
AS,aom,av2,0,A1,Crosswalk,3840x2160,60.0000,10,1280x720,185,336.180742,36.038333,43.060508,44.779324,14.243046,13.350895,42.653934,40.581424,32.591665,37.748588,35.965601,43.033438,44.729325,0.574419,,,,,,,a17decb18b81edc7e3970d6b81e7a44b,
AS,aom,av2,0,A1,Crosswalk,3840x2160,60.0000,10,1280x720,210,154.246984,33.196043,40.760967,42.076612,11.194692,11.247205,24.440214,22.978294,29.564423,35.224796,33.109998,40.729148,41.993465,0.660929,,,,,,,eafdae431075738d688a76bfe3f3e655,
AS,aom,av2,0,A1,Crosswalk,3840x2160,60.0000,10,1280x720,235,70.603858,30.168041,38.052509,38.873644,8.580576,9.283976,9.907904,8.999708,26.529529,32.334221,30.084909,38.019578,38.816968,0.808786,,,,,,,6d814614efa789a34720dea120ec0238,
AS,aom,av2,0,A1,Crosswalk,3840x2160,60.0000,10,960x540,110,2456.697764,40.882623,47.094036,50.075022,22.962692,17.835666,79.803659,77.336721,39.129089,42.049414,40.863658,47.084244,50.056862,0.434748,,,,,,,0ff713012b4080c5492488f5f00c801c,
AS,aom,av2,0,A1,Crosswalk,3840x2160,60.0000,10,960x540,135,1184.526243,39.589917,45.972173,48.511788,19.786302,16.465318,69.239035,66.628751,37.032178,40.891509,39.553111,45.957633,48.484316,0.481805,,,,,,,8c8924c4e7660ab5a2a59698be7dc8c9,
AS,aom,av2,0,A1,Crosswalk,3840x2160,60.0000,10,960x540,160,548.405441,37.586487,44.348242,46.414912,16.329328,14.624528,53.787282,51.246688,34.385268,39.142424,37.526548,44.328025,46.369022,0.569397,,,,,,,a337640c8b983800f6ea4105a7007432,
AS,aom,av2,0,A1,Crosswalk,3840x2160,60.0000,10,960x540,185,257.233228,35.082482,42.423192,44.029558,13.158159,12.616744,35.360175,33.431910,31.540786,36.994768,35.003778,42.399543,43.978580,0.668577,,,,,,,89812939a42406a0213e07da3e40612a,
AS,aom,av2,0,A1,Crosswalk,3840x2160,60.0000,10,960x540,210,116.578806,32.179861,40.024216,41.240167,10.243049,10.546812,17.380890,16.182750,28.538039,34.337912,32.093660,39.991167,41.173534,0.803829,,,,,,,c469ad1a13848baf8f9350a0f4357bf0,
AS,aom,av2,0,A1,Crosswalk,3840x2160,60.0000,10,960x540,235,53.197264,29.185936,37.560631,38.349532,7.886188,8.729701,4.565395,4.248848,25.583352,31.611445,29.110334,37.529742,38.279562,0.986040,,,,,,,4bd8edcdbce62bd27ae8f05175843544,
AS,aom,av2,0,A1,Crosswalk,3840x2160,60.0000,10,640x360,110,1513.945747,39.598869,46.229614,48.972767,20.787342,16.617924,64.553248,62.238366,36.904901,41.160951,39.564751,46.213568,48.946779,0.461908,,,,,,,9b0b28cbd3fdf993ce3e763010cb1541,
AS,aom,av2,0,A1,Crosswalk,3840x2160,60.0000,10,640x360,135,743.758395,38.208262,44.993730,47.317467,17.723053,15.247406,52.948454,50.622669,35.064288,39.862019,38.158502,44.972191,47.282894,0.538858,,,,,,,6a838815c44f1703b5ab016c0f12c19e,
AS,aom,av2,0,A1,Crosswalk,3840x2160,60.0000,10,640x360,160,345.962960,36.063749,43.265517,45.035387,14.459726,13.409071,37.135805,35.099377,32.573808,37.937178,35.990948,43.239637,44.985415,0.644721,,,,,,,4a44176ea2acdbca3e1d875780f1e271,
AS,aom,av2,0,A1,Crosswalk,3840x2160,60.0000,10,640x360,185,161.768078,33.464626,41.298766,42.618130,11.510821,11.453878,20.761703,19.523344,29.839808,35.625765,33.376679,41.269904,42.548526,0.784381,,,,,,,6965b6f8eed09557cfb6b751d881980f,
AS,aom,av2,0,A1,Crosswalk,3840x2160,60.0000,10,640x360,210,74.274034,30.557395,38.909068,40.010353,8.900869,9.529189,6.660399,6.207819,26.941130,32.921380,30.472547,38.871455,39.921664,0.978044,,,,,,,c9130619c51a883c3f336e07bf430d36,
AS,aom,av2,0,A1,Crosswalk,3840x2160,60.0000,10,640x360,235,34.481211,27.680937,36.556307,37.113157,6.943331,7.959722,0.220540,0.199280,24.126915,30.181794,27.610525,36.527830,37.047372,1.157833,,,,,,,7a8adc779c6fd5b8dbeb9520ee7e1175,
AS,aom,av2,0,A1,FoodMarket2,3840x2160,60.0000,10,3840x2160,110,27113.644509,43.144243,49.111869,49.327634,32.232008,22.845280,99.971535,99.963428,44.662190,44.176558,43.043312,49.021137,49.231630,0.009653,,,,,,,33eff4e65b320e053e0a16c0cb6eb31b,
AS,aom,av2,0,A1,FoodMarket2,3840x2160,60.0000,10,3840x2160,135,11641.034658,41.694021,47.332324,47.494587,29.013969,21.009449,99.959348,99.947534,41.527180,42.675902,41.624746,47.259774,47.405360,0.010733,,,,,,,2a37a9f4761bafd6be6087d2066f89c9,
AS,aom,av2,0,A1,FoodMarket2,3840x2160,60.0000,10,3840x2160,160,5262.479059,39.395795,45.012401,45.094992,24.818257,18.357048,98.695179,96.454730,37.494461,40.495101,39.319058,44.936474,44.993775,0.012851,,,,,,,55cad9d47f97c42422af377b6f95e6bd,
AS,aom,av2,0,A1,FoodMarket2,3840x2160,60.0000,10,3840x2160,185,2434.503343,36.483273,42.464811,42.451809,20.295724,15.273115,84.715691,82.215425,33.335512,37.848282,36.396366,42.384885,42.339125,0.014925,,,,,,,09bf25174c3d77720aaf5580662a029c,
AS,aom,av2,0,A1,FoodMarket2,3840x2160,60.0000,10,3840x2160,210,1092.993161,33.263261,39.829123,39.703347,15.848696,12.118986,63.409191,61.390307,29.372682,34.951777,33.169688,39.742629,39.590747,0.027734,,,,,,,9a062e04e553a1548eaf34454ccc7fec,
AS,aom,av2,0,A1,FoodMarket2,3840x2160,60.0000,10,3840x2160,235,461.671252,29.985913,37.170046,36.879309,11.706346,9.164931,40.749771,39.485823,25.742429,31.928954,29.893895,37.084602,36.768183,0.071697,,,,,,,5648877088f4c5685b601dc74162f843,
AS,aom,av2,0,A1,FoodMarket2,3840x2160,60.0000,10,2560x1440,110,15871.010221,42.259878,47.834499,47.893291,30.500461,21.840409,99.963303,99.952792,42.894670,43.222668,42.186575,47.742527,47.779439,0.010190,,,,,,,c20a68d63ce7d63a242229e8f1d09058,
AS,aom,av2,0,A1,FoodMarket2,3840x2160,60.0000,10,2560x1440,135,7387.887190,40.482372,45.969028,46.011535,26.819249,19.641437,99.945099,99.676646,39.359040,41.500032,40.410851,45.885043,45.899329,0.012430,,,,,,,735a9960fd0e332012ed70738c6aba0f,
AS,aom,av2,0,A1,FoodMarket2,3840x2160,60.0000,10,2560x1440,160,3377.568893,37.835397,43.567116,43.570864,22.399536,16.699502,92.566236,89.820275,35.192481,39.078212,37.751095,43.488260,43.458146,0.012995,,,,,,,2367e25dc42905372898bf8c9372228a,
AS,aom,av2,0,A1,FoodMarket2,3840x2160,60.0000,10,2560x1440,185,1536.427880,34.767992,41.067937,41.041688,17.890644,13.569670,74.335170,71.866343,31.170597,36.351196,34.673752,40.977935,40.913242,0.020945,,,,,,,5c6ded19e5400cc6c18995c78ed14d11,
AS,aom,av2,0,A1,FoodMarket2,3840x2160,60.0000,10,2560x1440,210,666.500269,31.537045,38.541911,38.403477,13.632380,10.539158,51.553877,49.806024,27.426811,33.445952,31.436376,38.453649,38.281841,0.048812,,,,,,,0549ca64f07cb9777e385fc25f521a5f,
AS,aom,av2,0,A1,FoodMarket2,3840x2160,60.0000,10,2560x1440,235,271.113502,28.373537,36.102561,35.772544,9.749950,7.811879,31.378007,30.454932,24.086695,30.564846,28.277731,36.003941,35.657901,0.118895,,,,,,,09fa86225970c9e1568801f51f00b3e7,
AS,aom,av2,0,A1,FoodMarket2,3840x2160,60.0000,10,1920x1080,110,11435.047414,41.191686,46.511405,46.527271,28.955545,20.778592,99.952348,99.939404,41.194263,42.204050,41.110148,46.403924,46.381583,0.011741,,,,,,,250dfae39ab2a271132d81b386bbfb24,
AS,aom,av2,0,A1,FoodMarket2,3840x2160,60.0000,10,1920x1080,135,5424.538538,39.297102,44.684830,44.700000,25.100977,18.430805,99.052372,96.536806,37.594864,40.397176,39.217296,44.592220,44.568695,0.017460,,,,,,,ea5708d61761533521fc986e19c7bc6c,
AS,aom,av2,0,A1,FoodMarket2,3840x2160,60.0000,10,1920x1080,160,2462.020441,36.566479,42.423324,42.381567,20.620919,15.428396,85.987176,83.157957,33.514283,37.941663,36.478331,42.335776,42.252081,0.019763,,,,,,,4ad2260aa396561de655deb28e7cf2d7,
AS,aom,av2,0,A1,FoodMarket2,3840x2160,60.0000,10,1920x1080,185,1099.536771,33.502605,40.035534,39.960808,16.241596,12.374027,65.626676,63.304433,29.665752,35.226698,33.403605,39.947044,39.833332,0.036096,,,,,,,ce6e6f160ac2138c598a34ba076bd3b1,
AS,aom,av2,0,A1,FoodMarket2,3840x2160,60.0000,10,1920x1080,210,466.123415,30.313737,37.690167,37.513572,12.124581,9.455440,43.111355,41.664568,26.105202,32.411197,30.209456,37.599197,37.381100,0.100176,,,,,,,e4f1a3884b9831db50978d71f17e5a7c,
AS,aom,av2,0,A1,FoodMarket2,3840x2160,60.0000,10,1920x1080,235,182.726812,27.280510,35.347205,35.010187,8.498256,6.962412,25.039246,24.389987,23.001932,29.605648,27.183582,35.251917,34.878275,0.183226,,,,,,,0318df6dc4935ebe8859a73e65e8ea20,
AS,aom,av2,0,A1,FoodMarket2,3840x2160,60.0000,10,1280x720,110,7119.016368,38.590914,44.183280,44.380007,26.365339,18.453210,98.081413,95.578848,37.168585,40.111094,38.424270,44.048422,44.184070,0.011386,,,,,,,a7850f9759a9606182f3517392065416,
AS,aom,av2,0,A1,FoodMarket2,3840x2160,60.0000,10,1280x720,135,3423.831553,36.945219,42.626738,42.751936,22.489528,16.285201,88.947587,86.212621,34.359411,38.425188,36.818475,42.518630,42.591499,0.016403,,,,,,,a0c9abc1dba56ab33713b55b26a79c9b,
AS,aom,av2,0,A1,FoodMarket2,3840x2160,60.0000,10,1280x720,160,1548.094982,34.501625,40.650303,40.696929,18.097589,13.495145,72.498247,69.988038,30.953889,36.149681,34.396473,40.554955,40.558759,0.026118,,,,,,,60793c7346a3ff5079ba8586f3ce1785,
AS,aom,av2,0,A1,FoodMarket2,3840x2160,60.0000,10,1280x720,185,673.519711,31.617773,38.520622,38.471160,13.925474,10.659778,51.103416,49.307301,27.526795,33.572124,31.511753,38.432124,38.334303,0.069254,,,,,,,5aa0396b6d8f6a028dfe20383a71ccce,
AS,aom,av2,0,A1,FoodMarket2,3840x2160,60.0000,10,1280x720,210,275.325905,28.619656,36.482015,36.168459,10.103582,8.029107,31.145767,30.256747,24.341006,30.915773,28.513963,36.394012,36.029411,0.150551,,,,,,,a57ba78ccb9ae4fe50b1b70380385102,
AS,aom,av2,0,A1,FoodMarket2,3840x2160,60.0000,10,1280x720,235,104.067010,25.743017,34.256435,33.851481,6.757035,5.811696,16.932696,16.669182,21.517706,28.220674,25.649771,34.156758,33.733120,0.264974,,,,,,,3a333dd5391661644bfc34986612924a,
AS,aom,av2,0,A1,FoodMarket2,3840x2160,60.0000,10,960x540,110,5211.937601,36.113980,42.525370,42.851831,24.612114,16.003018,86.926772,84.476376,33.217654,38.234651,35.870954,42.374760,42.637400,0.012786,,,,,,,900910be5bbc8b39aaf3717680947c05,
AS,aom,av2,0,A1,FoodMarket2,3840x2160,60.0000,10,960x540,135,2518.212864,34.872525,41.220336,41.446452,20.738900,14.346926,76.503733,74.072525,31.445361,36.808291,34.692210,41.098827,41.273378,0.018710,,,,,,,98e85d08b0b8a6207ac70bbfcc16ac2a,
AS,aom,av2,0,A1,FoodMarket2,3840x2160,60.0000,10,960x540,160,1130.639207,32.866521,39.475289,39.567209,16.436251,12.034473,59.403198,57.314868,28.930152,34.808604,32.737773,39.369751,39.414692,0.040534,,,,,,,0866449264b1336d636202f0429a16d7,
AS,aom,av2,0,A1,FoodMarket2,3840x2160,60.0000,10,960x540,185,492.415892,30.339255,37.689355,37.560981,12.500955,9.556766,40.114177,38.749254,26.106684,32.491579,30.226122,37.587095,37.413028,0.116876,,,,,,,0ee2041ee52c1f8385922c6e0a1924a9,
AS,aom,av2,0,A1,FoodMarket2,3840x2160,60.0000,10,960x540,210,197.009145,27.532054,35.713161,35.436551,8.827093,7.158801,23.421145,22.889247,23.243483,29.945426,27.425812,35.616283,35.298410,0.224162,,,,,,,2e9736b857a94db3e15846648b2ffe37,
AS,aom,av2,0,A1,FoodMarket2,3840x2160,60.0000,10,960x540,235,73.993699,24.827356,33.721020,33.153267,5.774399,5.173783,12.223466,12.195090,20.657913,27.357955,24.734536,33.628868,33.034867,0.344526,,,,,,,869ebead07db2d74f73fcc08e5dcafb6,
AS,aom,av2,0,A1,FoodMarket2,3840x2160,60.0000,10,640x360,110,2990.492584,32.713863,40.422966,40.765171,20.289535,12.585125,60.494813,58.606310,28.512010,35.500541,32.409113,40.276659,40.554309,0.011726,,,,,,,4d507804c2bd892347694a5d7905e566,
AS,aom,av2,0,A1,FoodMarket2,3840x2160,60.0000,10,640x360,135,1438.373319,31.897486,39.400872,39.624780,17.314066,11.526643,50.497212,48.797661,27.596274,34.431918,31.659872,39.278354,39.448630,0.027059,,,,,,,abd181b7742380a89d2c5e51e655e967,
AS,aom,av2,0,A1,FoodMarket2,3840x2160,60.0000,10,640x360,160,650.181818,30.449287,37.919542,37.992914,13.734613,9.894011,36.525897,35.284318,26.069840,32.810649,30.284560,37.815915,37.843336,0.085139,,,,,,,98358226c0829fb53bd88501d627804b,
AS,aom,av2,0,A1,FoodMarket2,3840x2160,60.0000,10,640x360,185,281.611312,28.392546,36.357562,36.227096,10.253930,7.931339,23.238963,22.629970,24.021419,30.814671,28.268561,36.257954,36.088017,0.177430,,,,,,,b5b4adde48dc5b0faa0ac4e59370f11c,
AS,aom,av2,0,A1,FoodMarket2,3840x2160,60.0000,10,640x360,210,111.104895,25.936425,34.638682,34.190744,7.019013,5.953493,13.599232,13.521313,21.686060,28.497376,25.829947,34.529323,34.051783,0.310436,,,,,,,945183560d613c9432c12568b5c81968,
AS,aom,av2,0,A1,FoodMarket2,3840x2160,60.0000,10,640x360,235,42.120341,23.492504,32.771058,32.198061,4.517271,4.351279,7.440629,7.545664,19.431703,26.133978,23.406016,32.660285,32.109188,0.412795,,,,,,,08580c4457acdc1b92d2fa2f76dfb31e,
AS,aom,av2,0,A1,Neon1224,3840x2160,30.0000,10,3840x2160,110,40050.249443,44.847912,48.724818,48.066700,28.394818,22.538448,99.976886,99.972357,43.807314,46.740074,44.757046,48.572795,47.915226,0.962988,,,,,,,aa270b761f64cf4ca460dae5584f5e13,
AS,aom,av2,0,A1,Neon1224,3840x2160,30.0000,10,3840x2160,135,17578.108661,41.552085,45.858474,45.012665,24.022216,19.696327,99.381614,98.603581,39.851309,44.060493,41.424881,45.766364,44.891535,1.210339,,,,,,,2b0fdb757aab026b7ba5bae27da9a8ce,
AS,aom,av2,0,A1,Neon1224,3840x2160,30.0000,10,3840x2160,160,7849.551064,38.659155,42.836260,41.790204,20.514378,17.296189,91.480049,89.156614,36.013269,41.473286,38.536827,42.733544,41.642367,1.394965,,,,,,,a657aec70b566f9c16d1096fcdf02677,
AS,aom,av2,0,A1,Neon1224,3840x2160,30.0000,10,3840x2160,185,3603.751326,35.692687,39.585614,38.318580,17.071333,14.841435,75.155098,72.633391,32.125437,38.667721,35.563517,39.447036,38.120394,1.590009,,,,,,,00327880409a5659c466425230f64d3c,
AS,aom,av2,0,A1,Neon1224,3840x2160,30.0000,10,3840x2160,210,1590.412664,32.467542,36.137608,34.555059,13.476026,12.239140,53.998632,51.804778,28.234317,35.483516,32.328584,35.966193,34.305235,1.857745,,,,,,,b07f377de3a4832b3a595eb27523f00c,
AS,aom,av2,0,A1,Neon1224,3840x2160,30.0000,10,3840x2160,235,678.099132,29.317452,32.734578,30.875174,10.250500,9.840952,31.192196,29.787789,24.717535,32.209589,29.189381,32.549971,30.602580,2.030670,,,,,,,09fc16be7bbcb139936d4b591bc70396,
AS,aom,av2,0,A1,Neon1224,3840x2160,30.0000,10,2560x1440,110,23474.063782,42.229992,47.120384,46.299387,25.741401,20.747316,99.898985,99.625297,41.432573,45.005265,42.178980,47.023363,46.182668,1.117554,,,,,,,d8d4b7607a6d922ebd80c07d605674b4,
AS,aom,av2,0,A1,Neon1224,3840x2160,30.0000,10,2560x1440,135,10782.864520,39.725682,44.314527,43.300997,22.022466,18.339615,96.011140,94.215410,37.709515,42.658369,39.637936,44.223097,43.171388,1.363400,,,,,,,64f34a92c410cfc5b5ebedb69944b2d6,
AS,aom,av2,0,A1,Neon1224,3840x2160,30.0000,10,2560x1440,160,4985.196342,36.980350,41.265733,40.050726,18.649712,15.973070,83.014520,80.484447,33.874961,40.106925,36.868868,41.146987,39.883292,1.517265,,,,,,,5bf830b8d4547b7d3e5969bb1aa632fe,
AS,aom,av2,0,A1,Neon1224,3840x2160,30.0000,10,2560x1440,185,2264.965189,33.950528,38.014568,36.567455,15.192713,13.467739,64.093678,61.695771,30.037864,37.224714,33.820082,37.862488,36.347675,1.716524,,,,,,,b210c17864504140c480f4b93a34d12e,
AS,aom,av2,0,A1,Neon1224,3840x2160,30.0000,10,2560x1440,210,966.632137,30.800015,34.677378,32.898463,11.803835,10.992414,41.969999,40.112039,26.386305,34.078287,30.669514,34.504193,32.633414,1.857185,,,,,,,3f1e2b1a3e1613d4e6657df93d103b75,
AS,aom,av2,0,A1,Neon1224,3840x2160,30.0000,10,2560x1440,235,394.999462,27.781165,31.539451,29.465458,8.919406,8.811852,20.544809,19.480967,23.154818,30.971165,27.667637,31.364529,29.199352,2.002633,,,,,,,439c68257c8bbe0e39e8ef4983050622,
AS,aom,av2,0,A1,Neon1224,3840x2160,30.0000,10,1920x1080,110,16408.023361,40.625586,45.992838,45.021621,24.109319,19.656869,98.837705,97.730959,39.799773,43.917650,40.587157,45.908450,44.911382,1.274628,,,,,,,245d404130111699ab205cf8fc2af7fb,
AS,aom,av2,0,A1,Neon1224,3840x2160,30.0000,10,1920x1080,135,7797.792361,38.419200,43.148821,42.000075,20.699041,17.410084,90.958938,88.598697,36.157446,41.647148,38.346600,43.049892,41.858880,1.477360,,,,,,,c94342e919ba5d96b9897bb95c5f425e,
AS,aom,av2,0,A1,Neon1224,3840x2160,30.0000,10,1920x1080,160,3621.063859,35.720090,40.047020,38.706109,17.328590,15.021511,75.370251,72.843406,32.339730,39.049580,35.613822,39.918335,38.523656,1.662340,,,,,,,e544d2e7cbbe0dc663c94a0f0905d6a0,
AS,aom,av2,0,A1,Neon1224,3840x2160,30.0000,10,1920x1080,185,1610.932452,32.697015,36.861506,35.251189,13.876053,12.507233,55.336695,53.114264,28.591825,36.158098,32.569832,36.704519,35.023546,1.824845,,,,,,,0633cad6ce8ca7485bf91bc87fde96e1,
AS,aom,av2,0,A1,Neon1224,3840x2160,30.0000,10,1920x1080,210,674.690848,29.642474,33.636807,31.720732,10.702057,10.155998,32.916495,31.394452,25.143167,33.053925,29.519886,33.465215,31.453731,1.934304,,,,,,,8c722ca8dd61c7f590d8253aa095814d,
AS,aom,av2,0,A1,Neon1224,3840x2160,30.0000,10,1920x1080,235,264.680550,26.712091,30.718640,28.483372,8.034398,8.116497,13.269707,12.470362,22.102255,30.055241,26.605954,30.551895,28.212876,2.106455,,,,,,,10d684cb30c1fc4b81e37b0e1ef479f8,
AS,aom,av2,0,A1,Neon1224,3840x2160,30.0000,10,1280x720,110,9936.400215,37.784230,43.848254,42.488333,22.087924,18.000085,91.136415,88.859879,36.205266,42.055656,37.755873,43.786607,42.402246,1.439104,,,,,,,1c3c0824e2e83027eb79f82bcc6684f7,
AS,aom,av2,0,A1,Neon1224,3840x2160,30.0000,10,1280x720,135,4887.763314,36.086024,41.131907,39.693017,18.843406,15.927532,78.573881,76.114450,33.275142,39.937372,36.036970,41.031250,39.555671,1.606258,,,,,,,ab73ac4e70f8461236616ba781cabf94,
AS,aom,av2,0,A1,Neon1224,3840x2160,30.0000,10,1280x720,160,2255.747330,33.684235,38.138219,36.564674,15.430841,13.576399,61.142356,58.877092,29.907258,37.374939,33.599667,38.003629,36.377776,1.847252,,,,,,,c279769fcd78d6d6f4c5b14651dc79ea,
AS,aom,av2,0,A1,Neon1224,3840x2160,30.0000,10,1280x720,185,980.958734,30.893420,35.121904,33.321261,12.112869,11.188989,41.112709,39.325053,26.555123,34.547486,30.785168,34.963102,33.092242,1.999630,,,,,,,602bce682c9765d735ca0fe92f992a38,
AS,aom,av2,0,A1,Neon1224,3840x2160,30.0000,10,1280x720,210,394.999462,28.004992,32.197626,30.060607,9.209718,9.009971,19.940356,18.951379,23.437748,31.580667,27.897443,32.036073,29.793081,2.132490,,,,,,,d507f78e90dc6f6094db08fbca7f6436,
AS,aom,av2,0,A1,Neon1224,3840x2160,30.0000,10,1280x720,235,147.467302,25.215038,29.555567,27.176787,6.875191,7.190151,4.532722,4.242324,20.666220,28.726080,25.116595,29.402990,26.912621,2.200112,,,,,,,aec3fcd41139ee55754aa839265a340c,
AS,aom,av2,0,A1,Neon1224,3840x2160,30.0000,10,960x540,110,7048.810881,35.626781,42.057109,40.328518,20.826851,16.500239,78.949606,76.539277,32.879169,40.569289,35.598225,42.008023,40.255910,1.552388,,,,,,,5d03746a13444479d72d9ea3b2b96237,
AS,aom,av2,0,A1,Neon1224,3840x2160,30.0000,10,960x540,135,3545.734881,34.335546,39.624918,37.951377,17.625233,14.712869,66.172483,63.836384,30.875829,38.649968,34.298799,39.535657,37.828314,1.723495,,,,,,,002cfd3ea580f5fefb3f79efed2296e4,
AS,aom,av2,0,A1,Neon1224,3840x2160,30.0000,10,960x540,160,1610.445554,32.240751,36.787842,35.040517,14.175170,12.519666,49.150872,47.170796,28.127993,36.171385,32.174045,36.659825,34.860724,1.977200,,,,,,,ebfd2a723a27fd592b85f84b4dff61d1,
AS,aom,av2,0,A1,Neon1224,3840x2160,30.0000,10,960x540,185,699.443326,29.725269,33.990953,32.025446,11.038663,10.341779,30.899931,29.497189,25.244978,33.477859,29.633575,33.843564,31.803645,2.122963,,,,,,,69521b09e203a8f4afdbfafae252bd0f,
AS,aom,av2,0,A1,Neon1224,3840x2160,30.0000,10,960x540,210,275.668946,26.978551,31.318195,29.073106,8.353475,8.327872,11.646019,11.017335,22.400092,30.686674,26.881063,31.169491,28.820173,2.286694,,,,,,,a512da124425688826408865800030ac,
AS,aom,av2,0,A1,Neon1224,3840x2160,30.0000,10,960x540,235,98.727734,24.295345,28.940120,26.432974,6.240321,6.656595,1.725918,1.651186,19.808343,27.910008,24.204466,28.786567,26.173993,2.384630,,,,,,,2b1df4ea8dd5983523f16cc57a5e3639,
AS,aom,av2,0,A1,Neon1224,3840x2160,30.0000,10,640x360,110,4180.924306,32.807201,39.255913,37.134726,18.427267,14.222835,53.253260,51.378488,28.743497,38.268925,32.777946,39.211567,37.063093,1.686049,,,,,,,50c066632a99213b5636ab5bdee9bc3b,
AS,aom,av2,0,A1,Neon1224,3840x2160,30.0000,10,640x360,135,2116.773073,31.862196,37.246213,35.293938,15.413909,12.793184,42.110358,40.435326,27.560927,36.572938,31.831881,37.165020,35.181211,1.868930,,,,,,,b847551f220fff58431f61d3231c3c98,
AS,aom,av2,0,A1,Neon1224,3840x2160,30.0000,10,640x360,160,953.236917,30.172587,34.788775,32.809455,12.210689,10.946588,28.275967,27.033038,25.643777,34.328997,30.123114,34.670471,32.638080,2.063341,,,,,,,b4b8836158d89e5772e87103dbac18ec,
AS,aom,av2,0,A1,Neon1224,3840x2160,30.0000,10,640x360,185,406.771690,27.974805,32.328773,30.153986,9.453633,9.099132,14.057394,13.390806,23.354093,31.823665,27.900680,32.190385,29.940253,2.224965,,,,,,,547e35ade6ca7160831fe5d2265ed0db,
AS,aom,av2,0,A1,Neon1224,3840x2160,30.0000,10,640x360,210,152.679321,25.391913,30.080194,27.608477,7.075550,7.311125,2.465751,2.385480,20.853547,29.158402,25.303101,29.942417,27.353894,2.405834,,,,,,,5dbab1a0ad65bea8c24b6a462d0a6672,
AS,aom,av2,0,A1,Neon1224,3840x2160,30.0000,10,640x360,235,51.614847,22.959072,27.930785,25.350959,5.373403,5.910571,0.187592,0.186727,18.577585,26.653694,22.884133,27.787305,25.097914,2.455337,,,,,,,ac0f74c2cee5319066f779a237e0d75b,
AS,aom,av2,0,A1,NocturneDance,3840x2160,60.0000,10,3840x2160,110,48466.401231,46.355033,43.874457,48.907420,27.026837,21.883800,94.070252,91.788180,43.418661,45.019177,46.275144,43.805355,48.850975,0.468558,,,,,,,1e3e8093882944d8f5716b21d273265a,
AS,aom,av2,0,A1,NocturneDance,3840x2160,60.0000,10,3840x2160,135,20458.467692,43.194035,42.005826,47.436416,22.919833,18.748396,84.804987,82.383485,39.537275,42.917981,43.114907,41.965101,47.401165,0.619262,,,,,,,6366979d302ada014ec34bdd74af485b,
AS,aom,av2,0,A1,NocturneDance,3840x2160,60.0000,10,3840x2160,160,8565.936000,40.021239,40.294759,45.893394,18.893553,15.675573,68.816862,66.512524,35.876219,40.902589,39.928214,40.266291,45.867980,0.646532,,,,,,,0fab7d715fd9c7600699c3b2c72b8b2b,
AS,aom,av2,0,A1,NocturneDance,3840x2160,60.0000,10,3840x2160,185,3357.312000,36.762258,38.605383,44.205995,14.708963,12.486818,45.729612,44.278931,32.319179,38.818487,36.653840,38.579471,44.185725,0.766465,,,,,,,04e090d27eea9e7f10959e7501555e57,
AS,aom,av2,0,A1,NocturneDance,3840x2160,60.0000,10,3840x2160,210,992.846769,33.576838,36.938129,42.592355,10.463399,9.387128,21.535654,21.009036,29.035845,36.673688,33.470943,36.913862,42.578526,1.170828,,,,,,,9d54ceacb45388372ac5a5f5782e085e,
AS,aom,av2,0,A1,NocturneDance,3840x2160,60.0000,10,3840x2160,235,229.152000,31.514188,35.647648,40.883501,7.825651,7.555979,7.531686,7.376752,27.034232,34.902710,31.464408,35.634692,40.867887,1.446614,,,,,,,206e202a06911701c2f597aeafaa7e06,
AS,aom,av2,0,A1,NocturneDance,3840x2160,60.0000,10,2560x1440,110,29589.367385,44.511516,42.462948,47.858796,24.663491,20.040189,89.593311,87.226793,41.124757,43.610205,44.439166,42.425748,47.819365,0.571573,,,,,,,c23e3bc440137d92bc923a41c9a5189b,
AS,aom,av2,0,A1,NocturneDance,3840x2160,60.0000,10,2560x1440,135,12458.304000,41.367813,40.930836,46.549739,20.653880,16.978585,76.981893,74.469316,37.404999,41.704084,41.285043,40.903106,46.521560,0.618565,,,,,,,cf48296e6bacc1c0e3b4cf8482f2f248,
AS,aom,av2,0,A1,NocturneDance,3840x2160,60.0000,10,2560x1440,160,5078.189538,38.201489,39.375346,45.027651,16.648814,13.921145,57.373688,55.239882,33.873137,39.755866,38.104481,39.350969,45.005415,0.714393,,,,,,,8a46549bb9f476596634f6486d1254de,
AS,aom,av2,0,A1,NocturneDance,3840x2160,60.0000,10,2560x1440,185,1756.161231,35.002223,37.738988,43.439127,12.413854,10.781943,32.793558,31.727417,30.485647,37.687594,34.894731,37.713125,43.418780,1.031955,,,,,,,59781c2a52d903b4421080ff013ff813,
AS,aom,av2,0,A1,NocturneDance,3840x2160,60.0000,10,2560x1440,210,431.235692,32.296422,36.235528,41.823427,8.778042,8.223901,13.488997,13.123503,27.784932,35.698078,32.217733,36.214950,41.808601,1.699111,,,,,,,d77bf4b245f96bfc201bf52348e8eeed,
AS,aom,av2,0,A1,NocturneDance,3840x2160,60.0000,10,2560x1440,235,96.040615,30.957289,35.240258,40.140737,7.256896,7.197703,5.975068,5.784749,26.524936,34.310444,30.932410,35.229878,40.128167,2.006240,,,,,,,17b94e6f5fa86dc0f711469831510794,
AS,aom,av2,0,A1,NocturneDance,3840x2160,60.0000,10,1920x1080,110,20914.807385,43.167793,41.184935,46.880098,22.929996,18.716064,84.996304,82.617870,39.483575,42.482785,43.097639,41.162839,46.849440,0.648113,,,,,,,01956934918c80784ef14f556c6e79bb,
AS,aom,av2,0,A1,NocturneDance,3840x2160,60.0000,10,1920x1080,135,8726.507077,40.055227,39.984958,45.695727,18.978511,15.710533,69.546901,67.189088,35.909678,40.760908,39.968812,39.964022,45.670657,0.669309,,,,,,,0be52d017d81dd52a4034385d06872a9,
AS,aom,av2,0,A1,NocturneDance,3840x2160,60.0000,10,1920x1080,160,3380.614154,36.879328,38.622046,44.316415,14.927063,12.627870,47.754019,45.987318,32.447604,38.878407,36.778701,38.600022,44.296611,0.818320,,,,,,,ede0b2224046ad9b1b09ae939f2e90ec,
AS,aom,av2,0,A1,NocturneDance,3840x2160,60.0000,10,1920x1080,185,1045.262769,33.840448,37.124057,42.909309,10.838565,9.659189,24.065165,23.328372,29.304667,36.899192,33.741026,37.099943,42.894313,1.396374,,,,,,,ce353f3c8a58b5a2e29eb459fbec958d,
AS,aom,av2,0,A1,NocturneDance,3840x2160,60.0000,10,1920x1080,210,237.127385,31.706796,35.874388,41.382390,8.048454,7.724302,10.202178,9.897934,27.224396,35.211731,31.653452,35.859652,41.365659,2.209014,,,,,,,68b4dad2f93d7387f457ca6924e5a496,
AS,aom,av2,0,A1,NocturneDance,3840x2160,60.0000,10,1920x1080,235,52.083692,30.606898,34.994729,39.702952,6.946028,7.015051,4.300067,4.141264,26.215728,33.873766,30.588042,34.983485,39.694067,2.682160,,,,,,,ebffe8e9084498c698ee596a3f9d948c,
AS,aom,av2,0,A1,NocturneDance,3840x2160,60.0000,10,1280x720,110,12478.759385,41.114392,39.266588,45.394243,20.598386,16.792629,75.594109,73.264912,37.086282,40.844528,41.059468,39.249174,45.369079,0.702695,,,,,,,ef363190f835acf854b29bd9bcc1c997,
AS,aom,av2,0,A1,NocturneDance,3840x2160,60.0000,10,1280x720,135,5088.096000,38.134146,38.497263,44.481988,16.639866,13.872382,56.517745,54.539277,33.771498,39.369936,38.046465,38.480523,44.460572,0.832419,,,,,,,e5a86571190c01912245e867c7b24bdf,
AS,aom,av2,0,A1,NocturneDance,3840x2160,60.0000,10,1280x720,160,1743.297231,35.040765,37.485267,43.411941,12.492008,10.838230,33.257880,32.151322,30.514291,37.634586,34.938353,37.466038,43.398718,1.186321,,,,,,,ded4a9572b760f6257bbc7f5920d2ef5,
AS,aom,av2,0,A1,NocturneDance,3840x2160,60.0000,10,1280x720,185,450.302769,32.453942,36.379852,42.182503,8.992754,8.370150,13.464484,13.080093,27.939600,35.890797,32.376152,36.360594,42.167784,1.989112,,,,,,,fa4ca28af442c805bd1adbfc635a5410,
AS,aom,av2,0,A1,NocturneDance,3840x2160,60.0000,10,1280x720,210,98.883692,31.141460,35.513008,40.641133,7.410269,7.307740,6.537492,6.317198,26.701569,34.634930,31.114643,35.501363,40.625256,2.828216,,,,,,,a43bb277eb5a0b62215c0ac1fcb7b164,
AS,aom,av2,0,A1,NocturneDance,3840x2160,60.0000,10,1280x720,235,28.109538,30.033071,34.584647,39.110455,6.596511,6.793841,0.427660,0.395897,25.716323,33.232808,30.014239,34.578721,39.096659,3.451394,,,,,,,b6e4d7f67bbd1355d28526865a863efd,
AS,aom,av2,0,A1,NocturneDance,3840x2160,60.0000,10,960x540,110,8524.932923,39.285207,38.152508,44.538785,19.052352,15.102263,64.750104,62.629016,34.966171,39.690093,39.247422,38.135055,44.515286,0.709543,,,,,,,3677fba780cb60b713305b6e0246b5cd,
AS,aom,av2,0,A1,NocturneDance,3840x2160,60.0000,10,960x540,135,3399.540923,36.737957,37.597161,43.822362,15.056080,12.524550,45.429180,43.853303,32.230532,38.450936,36.666532,37.580330,43.804964,0.987222,,,,,,,6f3e4e3817f46606d929341bf22078ac,
AS,aom,av2,0,A1,NocturneDance,3840x2160,60.0000,10,960x540,160,1031.283692,33.891084,36.857078,42.902973,10.977697,9.733496,23.218662,22.502237,29.332919,36.873191,33.798798,36.840451,42.890376,1.485376,,,,,,,6fdc7bbe530867ff66ed8f5a96dac639,
AS,aom,av2,0,A1,NocturneDance,3840x2160,60.0000,10,960x540,185,254.145231,31.838324,36.004672,41.798317,8.228154,7.832959,8.736764,8.473742,27.350548,35.379570,31.780313,35.990090,41.782880,2.317619,,,,,,,2c7b3a13ee797595dfacb8112ab1610a,
AS,aom,av2,0,A1,NocturneDance,3840x2160,60.0000,10,960x540,210,56.049231,30.767098,35.257558,40.413431,7.082604,7.101152,3.670651,3.528922,26.371027,34.178934,30.748179,35.248621,40.398363,3.221340,,,,,,,21274ee6411d2a2f210d074d28a8ed51,
AS,aom,av2,0,A1,NocturneDance,3840x2160,60.0000,10,960x540,235,21.086769,29.642326,34.382405,38.647280,6.405790,6.667978,0.068708,0.054631,25.380530,32.897610,29.627841,34.379004,38.639760,3.700396,,,,,,,5ffd300b63cc5dbac5fcd44957f7ea64,
AS,aom,av2,0,A1,NocturneDance,3840x2160,60.0000,10,640x360,110,4258.061538,36.283264,37.089225,43.705035,15.807858,12.283353,39.871051,38.465296,31.567399,38.065519,36.251836,37.072359,43.684804,0.681101,,,,,,,18e2ab49633fa6b3571f1d2c9ce2eedb,
AS,aom,av2,0,A1,NocturneDance,3840x2160,60.0000,10,640x360,135,1520.163692,34.479744,36.720948,43.098202,12.273524,10.365122,23.639415,22.860831,29.816452,37.110250,34.428661,36.705168,43.084011,1.216296,,,,,,,7ffe046ef98a1130ea5be60c1fcad525,
AS,aom,av2,0,A1,NocturneDance,3840x2160,60.0000,10,640x360,160,389.438769,32.429690,36.185997,42.223620,9.077248,8.379283,9.080592,8.782787,27.879571,35.847732,32.371868,36.171872,42.213336,2.082733,,,,,,,174b8b8411cf10df485fc7c67635a21d,
AS,aom,av2,0,A1,NocturneDance,3840x2160,60.0000,10,640x360,185,104.193231,31.218319,35.600409,41.014679,7.523748,7.366192,3.088470,2.989730,26.770911,34.729936,31.190030,35.590349,41.001796,2.901234,,,,,,,4a76bf3f8a6834f53e8cdc33ae099880,
AS,aom,av2,0,A1,NocturneDance,3840x2160,60.0000,10,640x360,210,30.236308,30.259028,34.901610,39.840049,6.703190,6.857265,0.188044,0.174292,25.925817,33.631180,30.246118,34.893292,39.828149,3.702767,,,,,,,1f67421705f8bcfce37458f129d5a472,
AS,aom,av2,0,A1,NocturneDance,3840x2160,60.0000,10,640x360,235,14.304000,29.045413,33.868428,37.850279,6.146780,6.491127,0.000000,0.000000,24.855310,32.201682,29.025228,33.865070,37.822264,3.946677,,,,,,,13a7a6f59c9254071abd49d3eec57a35,
AS,aom,av2,0,A1,PierSeaSide,3840x2160,30.0000,10,3840x2160,110,11501.864468,44.544575,47.219436,44.625476,31.435872,23.288952,99.652216,98.783870,44.870981,44.146866,44.397550,47.127016,44.523219,0.000350,,,,,,,1e61671879653d05f0c7c71777c1ab08,
AS,aom,av2,0,A1,PierSeaSide,3840x2160,30.0000,10,3840x2160,135,3710.448299,42.810493,46.192774,43.841538,27.857397,21.056013,97.950562,96.219552,41.947977,43.073557,42.561546,46.099546,43.746186,0.000727,,,,,,,d46c54c05085ad5ed5e92bea21b7360c,
AS,aom,av2,0,A1,PierSeaSide,3840x2160,30.0000,10,3840x2160,160,1231.176822,40.697871,44.906362,43.031715,23.983970,18.638059,92.663120,90.378823,38.816525,41.755714,40.380013,44.816376,42.939037,0.002202,,,,,,,40991c42f71c8bf559af35596264cddd,
AS,aom,av2,0,A1,PierSeaSide,3840x2160,30.0000,10,3840x2160,185,443.703545,38.394752,43.161597,41.913869,20.700945,16.429230,83.793723,81.331416,35.737289,40.155503,38.095138,43.082439,41.837312,0.007494,,,,,,,0b08c77e78b58124393c10a18355f2bf,
AS,aom,av2,0,A1,PierSeaSide,3840x2160,30.0000,10,3840x2160,210,169.597002,35.893972,40.981333,40.311614,17.716530,14.317246,70.219516,67.570146,32.554558,38.186978,35.671384,40.936926,40.253337,0.023748,,,,,,,3ef5efcb4c0ae9e800937580f6e75918,
AS,aom,av2,0,A1,PierSeaSide,3840x2160,30.0000,10,3840x2160,235,68.578737,33.188722,38.311110,38.347578,14.845420,12.187932,50.093532,47.891224,29.252325,35.885017,33.048328,38.287302,38.311647,0.061678,,,,,,,afa4166f6cba027f3e25e1d17b8f2e1d,
AS,aom,av2,0,A1,PierSeaSide,3840x2160,30.0000,10,2560x1440,110,5724.498694,43.190741,46.218032,43.439427,29.461766,21.977615,98.843266,97.227103,43.140337,43.119200,42.933289,46.101438,43.301521,0.000561,,,,,,,38f3cdd9e38cb5fdc99ebbed49ea656e,
AS,aom,av2,0,A1,PierSeaSide,3840x2160,30.0000,10,2560x1440,135,1942.998441,41.468759,45.282726,42.876857,25.760503,19.715454,95.650196,93.066980,40.183414,42.138474,41.133227,45.168132,42.745323,0.001323,,,,,,,b784d1ea814ae1ce382f2b46e88e090b,
AS,aom,av2,0,A1,PierSeaSide,3840x2160,30.0000,10,2560x1440,160,666.684033,39.393613,43.933734,42.132348,22.185093,17.414594,88.538211,85.788102,37.140178,40.835897,39.046820,43.839791,42.022485,0.003947,,,,,,,a0ecc8bb5e75676308dfa00754ad0ca1,
AS,aom,av2,0,A1,PierSeaSide,3840x2160,30.0000,10,2560x1440,185,252.673842,37.106124,42.053715,40.978032,19.209760,15.342455,77.448044,74.698687,34.104474,39.193833,36.832823,41.985668,40.902940,0.014870,,,,,,,e458fac925f869fe80736d3231c2412d,
AS,aom,av2,0,A1,PierSeaSide,3840x2160,30.0000,10,2560x1440,210,99.970698,34.531284,39.789737,39.390105,16.332954,13.249214,60.536270,57.993113,30.875776,37.187008,34.343229,39.755007,39.340049,0.052437,,,,,,,2cfefbe40377fc97691ba6d5698a9c7e,
AS,aom,av2,0,A1,PierSeaSide,3840x2160,30.0000,10,2560x1440,235,40.731535,31.755653,37.255724,37.550658,13.356575,11.073822,38.666214,36.592525,27.612641,34.751058,31.645402,37.235202,37.521402,0.133984,,,,,,,0668c2f39c32bd608c54f47a4a45b016,
AS,aom,av2,0,A1,PierSeaSide,3840x2160,30.0000,10,1920x1080,110,3487.228050,41.470043,45.049578,42.611752,27.890992,20.705639,96.411831,93.904324,41.412041,42.094955,41.043244,44.918119,42.460756,0.001010,,,,,,,f2996143817ec15ddba80afae764ffa7,
AS,aom,av2,0,A1,PierSeaSide,3840x2160,30.0000,10,1920x1080,135,1220.000317,40.044263,44.217263,42.165888,24.297805,18.620051,91.729406,88.918129,38.700415,41.220925,39.608779,44.098119,42.027540,0.002901,,,,,,,072d3b49074f52776b9b87ed367251c3,
AS,aom,av2,0,A1,PierSeaSide,3840x2160,30.0000,10,1920x1080,160,437.912418,38.203810,42.891972,41.429191,20.996015,16.512030,83.378334,80.627932,35.823395,39.979269,37.825367,42.803086,41.320517,0.009584,,,,,,,1d5e07dddc38e438be34555a65688995,
AS,aom,av2,0,A1,PierSeaSide,3840x2160,30.0000,10,1920x1080,185,171.598076,36.029656,41.056513,40.260644,18.126647,14.524116,70.756526,68.077789,32.839426,38.360724,35.761435,41.000646,40.189602,0.033364,,,,,,,5b2ec6b2b9dd49ea6224eb839c29e84c,
AS,aom,av2,0,A1,PierSeaSide,3840x2160,30.0000,10,1920x1080,210,68.510498,33.462377,38.906409,38.692904,15.298631,12.450533,51.947625,49.569655,29.621341,36.358916,33.298395,38.870532,38.643382,0.088454,,,,,,,aeb70b5c9529c034c6eed2ca42281b42,
AS,aom,av2,0,A1,PierSeaSide,3840x2160,30.0000,10,1920x1080,235,27.624041,30.696495,36.422705,36.925447,12.242759,10.249967,29.643994,27.780962,26.447233,33.963309,30.601843,36.406723,36.901430,0.187703,,,,,,,ceec632257a079497aceefe3b8f2599d,
AS,aom,av2,0,A1,PierSeaSide,3840x2160,30.0000,10,1280x720,110,1654.598514,38.204991,42.997778,41.552900,25.322344,18.252324,87.126545,84.577701,36.855655,40.293931,37.690396,42.888560,41.418206,0.001386,,,,,,,e6f93e196de38218481aad4d53385d9d,
AS,aom,av2,0,A1,PierSeaSide,3840x2160,30.0000,10,1280x720,135,611.917316,37.307937,42.344331,41.179448,22.187216,16.683041,81.213662,78.641354,35.218979,39.595570,36.831330,42.249219,41.061109,0.004347,,,,,,,dca19f23892d3e9ecded220cd5ee5d48,
AS,aom,av2,0,A1,PierSeaSide,3840x2160,30.0000,10,1280x720,160,238.400745,36.022953,41.201054,40.420085,19.323876,15.024502,71.804415,69.292627,33.166538,38.546035,35.640365,41.130657,40.329938,0.018216,,,,,,,92dc842c21941e050a92f743f4ea59b4,
AS,aom,av2,0,A1,PierSeaSide,3840x2160,30.0000,10,1280x720,185,97.469817,34.226462,39.569974,39.235022,16.600255,13.251328,57.531880,55.157813,30.666167,37.086873,33.972824,39.524673,39.176688,0.067060,,,,,,,c7b3cfc31d3969a7e55ca937babe47bd,
AS,aom,av2,0,A1,PierSeaSide,3840x2160,30.0000,10,1280x720,210,40.246482,31.873094,37.609539,37.755136,13.727006,11.250723,37.866379,35.916826,27.786475,35.123895,31.741855,37.584913,37.720502,0.147237,,,,,,,24015b484e6d235f8330695d1c600299,
AS,aom,av2,0,A1,PierSeaSide,3840x2160,30.0000,10,1280x720,235,16.875415,29.245896,35.341539,36.228488,10.675582,9.084951,16.154568,14.701742,24.913176,32.813998,29.175093,35.326468,36.207628,0.257887,,,,,,,000deccac80c192fc6932377736a654e,
AS,aom,av2,0,A1,PierSeaSide,3840x2160,30.0000,10,960x540,110,1027.203768,35.673936,41.397517,40.781121,23.888767,15.969029,73.488100,71.234862,32.721519,38.824705,35.262954,41.319286,40.670821,0.002683,,,,,,,81005ebc717b8a0351df41cb3cfe835b,
AS,aom,av2,0,A1,PierSeaSide,3840x2160,30.0000,10,960x540,135,397.806103,35.109642,40.885991,40.430439,20.973884,14.938495,67.458711,65.244880,31.881236,38.263171,34.720927,40.815728,40.333152,0.009467,,,,,,,777dd61244b2c9f6e75414232196d056,
AS,aom,av2,0,A1,PierSeaSide,3840x2160,30.0000,10,960x540,160,162.199484,34.231360,39.979038,39.725528,18.284541,13.724881,58.104100,55.984116,30.658018,37.405737,33.906338,39.922963,39.650405,0.040996,,,,,,,ddf31840c2eb2c67af22c397a27b5247,
AS,aom,av2,0,A1,PierSeaSide,3840x2160,30.0000,10,960x540,185,68.584270,32.797026,38.586975,38.639417,15.588009,12.223791,43.822271,41.894643,28.833172,36.106059,32.574482,38.547624,38.584689,0.113452,,,,,,,9ee5f29d7e17f61e8674f2de311ce651,
AS,aom,av2,0,A1,PierSeaSide,3840x2160,30.0000,10,960x540,210,28.937188,30.763708,36.802813,37.346874,12.677137,10.412166,25.874008,24.335571,26.513315,34.280313,30.641796,36.781290,37.312582,0.209633,,,,,,,36581b46200665fb5f41419b5e348481,
AS,aom,av2,0,A1,PierSeaSide,3840x2160,30.0000,10,960x540,235,12.224071,28.281233,34.616412,35.693651,9.645643,8.327408,6.372275,5.418458,23.928883,31.978808,28.221454,34.606503,35.671590,0.285452,,,,,,,260000b033af235ac2958d9008b3bf57,
AS,aom,av2,0,A1,PierSeaSide,3840x2160,30.0000,10,640x360,110,459.112735,32.445842,39.548350,39.710872,20.166773,12.902518,42.608312,40.887475,28.148777,36.769841,32.217179,39.498001,39.628008,0.007106,,,,,,,4d8d9c5b4e413cafbb1da5e0317a9c69,
AS,aom,av2,0,A1,PierSeaSide,3840x2160,30.0000,10,640x360,135,189.821681,32.147035,39.145170,39.377028,18.267549,12.367059,37.683795,36.050330,27.806416,36.358707,31.925795,39.099375,39.304403,0.021860,,,,,,,debdfa1d6b21032511341eecbe0255b7,
AS,aom,av2,0,A1,PierSeaSide,3840x2160,30.0000,10,640x360,160,83.333199,31.620219,38.390880,38.737332,16.116925,11.620541,29.949373,28.476526,27.221163,35.671923,31.424600,38.351849,38.681477,0.082396,,,,,,,d4ca4776a23b0ade8ad92f7c2f26b465,
AS,aom,av2,0,A1,PierSeaSide,3840x2160,30.0000,10,640x360,185,36.947016,30.638626,37.248402,37.786141,13.695968,10.528522,18.905202,17.666665,26.188220,34.584341,30.490487,37.223301,37.745507,0.166077,,,,,,,96b91af7c9e2b1a8c4866096b07da1b9,
AS,aom,av2,0,A1,PierSeaSide,3840x2160,30.0000,10,640x360,210,16.486266,29.048843,35.591074,36.482096,10.928843,9.022686,6.086154,5.254555,24.609812,32.949283,28.957476,35.572044,36.454675,0.271271,,,,,,,6b8ace141b967345048e6c907c5e54e2,
AS,aom,av2,0,A1,PierSeaSide,3840x2160,30.0000,10,640x360,235,7.698140,26.989037,33.602331,35.211695,8.238164,7.313054,0.000000,0.000000,22.660329,30.900115,26.938396,33.588495,35.187948,0.300950,,,,,,,a79f7e7ea2e734be74b430149362fdbd,
AS,aom,av2,0,A1,Tango,3840x2160,60.0000,10,3840x2160,110,29991.977254,40.438450,49.723642,47.979882,27.364417,18.264399,97.530905,95.728032,41.369517,42.573104,40.365148,49.710300,47.951473,0.295110,,,,,,,efa42995d97fd8bd35bc0e341ced39f7,
AS,aom,av2,0,A1,Tango,3840x2160,60.0000,10,3840x2160,135,10348.841313,39.800585,49.034357,46.877140,24.867795,17.382752,93.308376,91.150293,39.732739,41.881784,39.786441,49.029241,46.859750,0.458994,,,,,,,d4abf67d3f91f415f8371dad0914b51f,
AS,aom,av2,0,A1,Tango,3840x2160,60.0000,10,3840x2160,160,3828.930454,38.863354,47.906224,45.203193,21.954305,16.248892,85.341392,82.953253,37.582846,40.876309,38.855285,47.897769,45.179872,0.531444,,,,,,,2af4d1993e4e43ea5de3b4d2e551768c,
AS,aom,av2,0,A1,Tango,3840x2160,60.0000,10,3840x2160,185,1841.465611,37.334297,46.201092,42.946382,18.556478,14.669681,71.979285,69.605905,34.861432,39.374296,37.315394,46.182721,42.912913,0.634987,,,,,,,8d00d76c12ffb006f4ec0da12a3c4b75,
AS,aom,av2,0,A1,Tango,3840x2160,60.0000,10,3840x2160,210,879.462691,35.109408,43.850563,40.299371,15.031677,12.721891,54.853184,52.680018,31.778016,37.310508,35.074636,43.821935,40.262004,0.671241,,,,,,,3fc4ae5c58f7cde05cc1aa4ec1067ff2,
AS,aom,av2,0,A1,Tango,3840x2160,60.0000,10,3840x2160,235,407.205103,32.322571,40.962348,37.260131,11.635183,10.587960,34.597689,33.047180,28.541505,34.699926,32.273771,40.928325,37.217252,0.735320,,,,,,,3e6818042d2353b5a8f4e75928110176,
AS,aom,av2,0,A1,Tango,3840x2160,60.0000,10,2560x1440,110,13910.269423,40.043098,49.364864,47.328313,25.961179,17.740451,95.516350,93.403807,40.429793,42.163251,40.030120,49.358571,47.310473,0.416014,,,,,,,c2e58f28e9c5a9a51f7883f5040de4ce,
AS,aom,av2,0,A1,Tango,3840x2160,60.0000,10,2560x1440,135,5525.315300,39.340645,48.535899,46.051947,23.447186,16.820397,90.002316,87.511929,38.635243,41.396618,39.334569,48.530025,46.033669,0.468582,,,,,,,4c8fefb21f47d26b016294155f40725c,
AS,aom,av2,0,A1,Tango,3840x2160,60.0000,10,2560x1440,160,2481.075847,38.113428,47.179261,44.121094,20.179898,15.453182,79.426627,76.742935,36.165808,40.163969,38.100807,47.167480,44.093048,0.600150,,,,,,,baea4a6855985414afcc994e54bbe8d5,
AS,aom,av2,0,A1,Tango,3840x2160,60.0000,10,2560x1440,185,1190.531315,36.234836,45.288016,41.734048,16.712677,13.681312,63.286827,60.872927,33.268119,38.431753,36.208505,45.265007,41.698289,0.669820,,,,,,,b0f66391011c657a1a797cf66c501025,
AS,aom,av2,0,A1,Tango,3840x2160,60.0000,10,2560x1440,210,557.446246,33.730914,42.893260,39.061277,13.279922,11.646663,45.238737,43.090867,30.146886,36.195413,33.689624,42.864316,39.023803,0.795735,,,,,,,ae419b19af5cb484cfde68a83d29f98a,
AS,aom,av2,0,A1,Tango,3840x2160,60.0000,10,2560x1440,235,252.615077,30.850468,39.863344,36.017280,10.180685,9.614035,26.796951,25.375737,27.004639,33.433647,30.798391,39.819686,35.976385,0.867983,,,,,,,ff231233d7d9d5d5a3c66ba696599277,
AS,aom,av2,0,A1,Tango,3840x2160,60.0000,10,1920x1080,110,9129.844924,39.759059,49.029445,46.703406,24.995121,17.365907,93.322181,91.045826,39.698806,41.836029,39.752583,49.024314,46.687189,0.494493,,,,,,,9a4175935b61249b0a75e463680c5c9d,
AS,aom,av2,0,A1,Tango,3840x2160,60.0000,10,1920x1080,135,3935.026205,38.909579,48.072202,45.280357,22.240563,16.325144,86.266692,83.663946,37.701682,40.950867,38.902548,48.064246,45.259489,0.572397,,,,,,,d5bc779dbf56fcb2279d6fed1229d4cd,
AS,aom,av2,0,A1,Tango,3840x2160,60.0000,10,1920x1080,160,1836.124491,37.439484,46.559055,43.223606,18.843542,14.791022,73.804555,71.081364,35.044205,39.552341,37.422044,46.543173,43.193445,0.696750,,,,,,,0127649d49d361e147df52f469e6ef8a,
AS,aom,av2,0,A1,Tango,3840x2160,60.0000,10,1920x1080,185,873.704757,35.346790,44.542876,40.795809,15.421125,12.938343,56.408773,54.004802,32.097191,37.664470,35.315278,44.516561,40.758219,0.806438,,,,,,,7f985c8e0ffefb25725377efc29efe05,
AS,aom,av2,0,A1,Tango,3840x2160,60.0000,10,1920x1080,210,400.145086,32.676706,42.176189,38.105415,12.054016,10.865307,38.511805,36.571757,28.975525,35.314124,32.631129,42.143800,38.066871,0.943787,,,,,,,9ba2aa0a8c416ba5dc246436bd1672cc,
AS,aom,av2,0,A1,Tango,3840x2160,60.0000,10,1920x1080,235,177.850457,29.785949,39.195835,35.122075,9.204833,8.954466,21.654730,20.372764,25.935197,32.524410,29.732650,39.157488,35.075050,1.041998,,,,,,,577a25bd0f8fc26bb7c517a8a58749f3,
AS,aom,av2,0,A1,Tango,3840x2160,60.0000,10,1280x720,110,5415.412895,39.151413,48.361862,45.455986,23.364460,16.686025,87.776363,85.383919,38.314557,41.196539,39.146419,48.355850,45.438504,0.558089,,,,,,,fae5ad1792dd38b6191cd07bc71a9a75,
AS,aom,av2,0,A1,Tango,3840x2160,60.0000,10,1280x720,135,2565.198494,38.047061,47.244602,43.923551,20.337609,15.444336,78.176448,75.548429,36.091911,40.136706,38.035189,47.234046,43.898896,0.664504,,,,,,,3c6a3f88de72fa7ce84161565eb38eee,
AS,aom,av2,0,A1,Tango,3840x2160,60.0000,10,1280x720,160,1198.764313,36.271590,45.542347,41.779737,16.904143,13.745139,63.536347,60.873675,33.327566,38.526251,36.246836,45.523255,41.748038,0.837995,,,,,,,6c1d72f41270a57564159c64bef840f7,
AS,aom,av2,0,A1,Tango,3840x2160,60.0000,10,1280x720,185,558.206102,33.923917,43.441660,39.364520,13.561995,11.808069,45.781993,43.675848,30.377846,36.488186,33.885548,43.407695,39.326069,1.002830,,,,,,,0ecbe49b596e4a49124b4993c2c43147,
AS,aom,av2,0,A1,Tango,3840x2160,60.0000,10,1280x720,210,250.361331,31.148509,40.948779,36.804519,10.492962,9.827366,29.004460,27.405312,27.356788,33.995522,31.099968,40.919664,36.762716,1.136228,,,,,,,87408a8ca75f6b564d474718be6d2100,
AS,aom,av2,0,A1,Tango,3840x2160,60.0000,10,1280x720,235,109.079843,28.253253,37.886928,33.807070,7.989568,8.094724,12.308749,11.485428,24.418236,31.118533,28.196134,37.845997,33.758871,1.181229,,,,,,,9c7e0fb3d76643ddaadc2d41faff7b6e,
AS,aom,av2,0,A1,Tango,3840x2160,60.0000,10,960x540,110,4013.088450,38.466246,47.745822,44.345766,22.112136,16.034425,80.578992,78.232087,36.888233,40.574352,38.459476,47.738548,44.327330,0.632265,,,,,,,a0c0fd9a83d45ab5c7efe2f38744eb68,
AS,aom,av2,0,A1,Tango,3840x2160,60.0000,10,960x540,135,1965.879044,37.259869,46.559242,42.866728,19.037794,14.727027,69.774009,67.261944,34.765001,39.457160,37.244189,46.546584,42.842010,0.758445,,,,,,,08cef5c0d5836db8862dc66c713bba72,
AS,aom,av2,0,A1,Tango,3840x2160,60.0000,10,960x540,160,910.270038,35.348662,44.712085,40.770093,15.639540,12.990213,54.413045,52.065794,32.081150,37.737977,35.319408,44.684885,40.737753,0.942705,,,,,,,e4e99928abbf8e8b9fe248cf8f73780f,
AS,aom,av2,0,A1,Tango,3840x2160,60.0000,10,960x540,185,422.645662,32.934787,42.755344,38.456238,12.427683,11.073200,37.353402,35.624781,29.249042,35.648047,32.893213,42.716453,38.418171,1.157733,,,,,,,a70c749aaa9e0d75a920161f6c76b57d,
AS,aom,av2,0,A1,Tango,3840x2160,60.0000,10,960x540,210,188.023669,30.171512,40.368467,35.888465,9.568449,9.199512,21.836301,20.722840,26.353458,33.136371,30.123113,40.334265,35.849659,1.300478,,,,,,,c1b1aa68134db819f9bc88747fe8955f,
AS,aom,av2,0,A1,Tango,3840x2160,60.0000,10,960x540,235,80.773380,27.273282,37.322187,32.937090,7.281107,7.578057,5.301084,4.899086,23.461011,30.217520,27.219219,37.274392,32.889226,1.274119,,,,,,,6ca637042688223361c055b93516bd6f,
AS,aom,av2,0,A1,Tango,3840x2160,60.0000,10,640x360,110,2553.660493,36.830935,46.540799,42.422669,19.744762,14.618950,60.987882,58.953906,33.915927,39.302961,36.822128,46.532314,42.401399,0.695303,,,,,,,b1a586e598f6705604525311795b8afa,
AS,aom,av2,0,A1,Tango,3840x2160,60.0000,10,640x360,135,1263.750403,35.590872,45.332175,41.023410,16.817696,13.363160,49.377125,47.393116,32.244901,38.133789,35.571658,45.318893,40.994841,0.865755,,,,,,,ea02be4a9ad47169dbcbb36f0edf468a,
AS,aom,av2,0,A1,Tango,3840x2160,60.0000,10,640x360,160,580.311996,33.660827,43.545178,39.069855,13.642732,11.703167,34.848156,33.221365,29.973423,36.380168,33.628063,43.521949,39.032397,1.070843,,,,,,,312ea09d7ad67677ec3bcd96e1e6bd07,
AS,aom,av2,0,A1,Tango,3840x2160,60.0000,10,640x360,185,264.994083,31.282090,41.517115,36.951715,10.755987,9.951781,20.543953,19.615652,27.456768,34.238179,31.238578,41.490731,36.914673,1.350716,,,,,,,3e97988272ac1bd73eac6d61993d46b3,
AS,aom,av2,0,A1,Tango,3840x2160,60.0000,10,640x360,210,115.973872,28.586362,39.031715,34.432222,8.283812,8.292742,8.332556,7.921720,24.764254,31.707084,28.537875,38.999160,34.394880,1.428097,,,,,,,ad13ae1d6527521c946bc53b1517a341,
AS,aom,av2,0,A1,Tango,3840x2160,60.0000,10,640x360,235,50.220549,25.773668,35.911553,31.691528,6.332429,6.858107,0.229102,0.207411,22.014808,28.813499,25.719420,35.860589,31.638361,1.316010,,,,,,,52ae9f58616f1a1ca1937db94dd25d98,
AS,aom,av2,0,A1,TimeLapse,3840x2160,60.0000,10,3840x2160,110,29347.273035,43.601511,49.708058,51.495957,31.636622,23.301999,95.160109,93.391000,45.229061,44.764695,43.503565,49.681495,51.413747,0.008260,,,,,,,8e65c3f53bb731ff7e010a5bc56cff46,
AS,aom,av2,0,A1,TimeLapse,3840x2160,60.0000,10,3840x2160,135,10712.594482,41.663515,48.082988,49.788641,27.919045,20.828406,92.130169,90.096328,41.542252,43.159999,41.597061,48.071255,49.740075,0.007819,,,,,,,232cb59367b1edb29ce08e69742c6757,
AS,aom,av2,0,A1,TimeLapse,3840x2160,60.0000,10,3840x2160,160,3947.608084,39.482917,46.087119,47.653930,24.014308,18.173102,86.442099,84.084636,37.879995,41.213099,39.422763,46.080810,47.628930,0.007481,,,,,,,203fc4d8a8b6b346dcbfe21748e4d339,
AS,aom,av2,0,A1,TimeLapse,3840x2160,60.0000,10,3840x2160,185,1526.686237,37.099007,43.935619,45.380792,20.275440,15.466781,77.120235,74.518046,34.444727,38.982068,37.036536,43.929207,45.365973,0.009966,,,,,,,22092ca3ebd5f1121802a9709d36c3f0,
AS,aom,av2,0,A1,TimeLapse,3840x2160,60.0000,10,3840x2160,210,574.841774,34.504041,41.649675,43.007317,16.528937,12.712654,62.776187,60.171441,31.106015,36.495019,34.434335,41.642296,42.987267,0.013588,,,,,,,3f3371da266084785419a3cad181c643,
AS,aom,av2,0,A1,TimeLapse,3840x2160,60.0000,10,3840x2160,235,208.761085,31.848161,39.080727,39.998684,12.891067,10.189603,45.081115,42.807664,27.972952,33.791883,31.770980,39.060898,39.915077,0.016894,,,,,,,0fd6f1beb83ea71bc8d5baebb057dbe6,
AS,aom,av2,0,A1,TimeLapse,3840x2160,60.0000,10,2560x1440,110,15243.631445,42.002660,48.387800,50.192487,29.524553,21.800678,93.017841,90.936201,43.023186,43.460124,41.937347,48.374269,50.127228,0.010486,,,,,,,9de56c436347df827165498d419e4679,
AS,aom,av2,0,A1,TimeLapse,3840x2160,60.0000,10,2560x1440,135,5911.119035,40.230316,46.817766,48.528027,25.795211,19.335108,88.813821,86.521670,39.449150,41.930667,40.170630,46.810406,48.487992,0.008977,,,,,,,4f76cc9972570e29127950bdd5bb2b6c,
AS,aom,av2,0,A1,TimeLapse,3840x2160,60.0000,10,2560x1440,160,2272.285253,38.074441,44.877375,46.489284,21.963189,16.672153,81.333547,78.795181,35.951372,39.969806,38.013986,44.871820,46.466149,0.009485,,,,,,,caff794c8c6e27b261a777608725b80b,
AS,aom,av2,0,A1,TimeLapse,3840x2160,60.0000,10,2560x1440,185,879.256128,35.672724,42.822302,44.349947,18.262034,13.969274,69.831290,67.105716,32.629322,37.737123,35.605827,42.815642,44.333695,0.013258,,,,,,,8380033339f181a39b2e2864bd924dc3,
AS,aom,av2,0,A1,TimeLapse,3840x2160,60.0000,10,2560x1440,210,322.942288,33.079678,40.609338,41.956837,14.579917,11.333697,53.423448,50.961329,29.422003,35.256474,33.001345,40.601901,41.932821,0.015020,,,,,,,a4aa07153a84c12b5b21ebd011c7cf60,
AS,aom,av2,0,A1,TimeLapse,3840x2160,60.0000,10,2560x1440,235,117.250134,30.449817,38.143675,39.237010,11.130418,9.010457,35.191836,33.220495,26.455632,32.623087,30.363564,38.128774,39.166431,0.021812,,,,,,,c4793ad4cfb93c98d5aac1d9276b6c27,
AS,aom,av2,0,A1,TimeLapse,3840x2160,60.0000,10,1920x1080,110,9764.169369,40.397680,47.204982,49.143721,27.951882,20.416162,90.024939,87.666245,41.123459,42.222643,40.328781,47.196551,49.100435,0.013653,,,,,,,b198a7c3e4fb2d0af3147ad959628132,
AS,aom,av2,0,A1,TimeLapse,3840x2160,60.0000,10,1920x1080,135,3891.555829,38.876323,45.724935,47.589289,24.273204,18.123210,84.899124,82.382513,37.856027,40.799610,38.814165,45.719964,47.557813,0.013688,,,,,,,1d15ef197d85890189aba9044b70379b,
AS,aom,av2,0,A1,TimeLapse,3840x2160,60.0000,10,1920x1080,160,1520.341812,36.891519,43.923164,45.652333,20.512971,15.549193,76.090235,73.443066,34.548199,38.938100,36.826588,43.919058,45.632124,0.015672,,,,,,,70cf63163fff1d527dda3a3c74527472,
AS,aom,av2,0,A1,TimeLapse,3840x2160,60.0000,10,1920x1080,185,585.339583,34.602235,41.976698,43.643770,16.851890,12.929146,63.008882,60.384706,31.370205,36.791388,34.530603,41.971124,43.629188,0.022073,,,,,,,17927661c858f1257c82ece988d63df6,
AS,aom,av2,0,A1,TimeLapse,3840x2160,60.0000,10,1920x1080,210,213.615308,32.061496,39.847366,41.318778,13.214013,10.399913,45.716715,43.525722,28.283722,34.339682,31.979915,39.841180,41.287257,0.020509,,,,,,,16fb0e1039ea0370d3c70783fb0a9f93,
AS,aom,av2,0,A1,TimeLapse,3840x2160,60.0000,10,1920x1080,235,78.977023,29.509821,37.515952,38.567720,10.018059,8.293486,28.303781,26.721650,25.447681,31.780676,29.419775,37.499885,38.462749,0.031509,,,,,,,ea2a29adafbac8c742c329284326e20b,
AS,aom,av2,0,A1,TimeLapse,3840x2160,60.0000,10,1280x720,110,4887.106739,37.178731,45.401196,47.624887,25.379127,17.522134,80.382892,77.972102,36.112968,39.916621,37.094953,45.393727,47.609427,0.013082,,,,,,,f4054590a67ac8e626ff73f430939d02,
AS,aom,av2,0,A1,TimeLapse,3840x2160,60.0000,10,1280x720,135,2048.721740,36.243488,44.084650,46.184961,22.036317,15.876425,74.037454,71.555430,34.314354,38.785846,36.168641,44.080153,46.168527,0.015565,,,,,,,5209853f79a32f989f114a1671e30ddb,
AS,aom,av2,0,A1,TimeLapse,3840x2160,60.0000,10,1280x720,160,840.315377,34.776271,42.481589,44.442656,18.463808,13.734131,63.737757,61.299393,31.953833,37.210555,34.703088,42.478182,44.429345,0.019668,,,,,,,b3b5260d858ecef6ff614f4a85355e41,
AS,aom,av2,0,A1,TimeLapse,3840x2160,60.0000,10,1280x720,185,322.614001,32.820866,40.736438,42.574504,14.867730,11.378828,49.171991,47.008561,29.302834,35.270840,32.739949,40.732564,42.558909,0.021962,,,,,,,0e50bfddd2c51d1d233f0826ca1f3dbf,
AS,aom,av2,0,A1,TimeLapse,3840x2160,60.0000,10,1280x720,210,118.766157,30.541448,38.832185,40.218425,11.424793,9.161224,32.938792,31.304413,26.619205,32.995514,30.455337,38.826470,40.185074,0.029955,,,,,,,ffee437ce1fb81d06d926ca9df39078b,
AS,aom,av2,0,A1,TimeLapse,3840x2160,60.0000,10,1280x720,235,46.347499,28.209437,36.587882,37.698464,8.565636,7.340075,19.591877,18.316237,24.106804,30.593151,28.121793,36.579371,37.609465,0.050571,,,,,,,e1b8806876c8ab354a07bd5ecd2e29db,
AS,aom,av2,0,A1,TimeLapse,3840x2160,60.0000,10,960x540,110,2985.118266,34.691395,43.980709,46.415748,23.890530,14.928607,67.767482,65.226655,31.985553,38.055678,34.593850,43.972262,46.408157,0.015565,,,,,,,486b9b15a70de0df2e255c39dfeb338a,
AS,aom,av2,0,A1,TimeLapse,3840x2160,60.0000,10,960x540,135,1308.098671,34.120519,42.871841,45.132223,20.669067,13.882899,61.228743,58.708597,31.111697,37.164443,34.031646,42.866750,45.124133,0.020091,,,,,,,414bc8d596597148ebb95623bf3ad964,
AS,aom,av2,0,A1,TimeLapse,3840x2160,60.0000,10,960x540,160,552.282179,33.073315,41.474382,43.549736,17.104485,12.270009,50.681587,48.334025,29.651507,35.868241,32.988732,41.471621,43.539645,0.024923,,,,,,,b0389c5423a04074916c1444bba9f080,
AS,aom,av2,0,A1,TimeLapse,3840x2160,60.0000,10,960x540,185,215.817413,31.488171,39.975370,41.818043,13.559177,10.284489,36.945002,34.996673,27.681714,34.159672,31.402201,39.972349,41.799379,0.030132,,,,,,,c96cccbf79b85c5c55657bd49e789395,
AS,aom,av2,0,A1,TimeLapse,3840x2160,60.0000,10,960x540,210,82.348421,29.530166,37.976415,39.664193,10.338850,8.398727,24.014974,22.572091,25.488878,32.045257,29.440799,37.969761,39.634657,0.041636,,,,,,,873fa4f02c359a9c15c9e2137501f505,
AS,aom,av2,0,A1,TimeLapse,3840x2160,60.0000,10,960x540,235,33.256590,27.340765,35.959376,37.109978,7.717898,6.780305,12.139224,11.376731,23.215989,29.795150,27.256937,35.954166,36.980662,0.084922,,,,,,,327af7b0bc6ab157a42fd9d6d2235cc2,
AS,aom,av2,0,A1,TimeLapse,3840x2160,60.0000,10,640x360,110,1388.200722,32.071757,42.551386,45.013203,20.366685,12.122500,43.216457,41.090060,28.118941,35.912181,31.971838,42.544694,44.997165,0.017155,,,,,,,ecd0fa638939aeba312382a0dd47d676,
AS,aom,av2,0,A1,TimeLapse,3840x2160,60.0000,10,640x360,135,643.918543,31.724324,41.562901,43.892957,17.896279,11.503571,37.568664,35.603762,27.712170,35.244814,31.632049,41.558964,43.881657,0.022690,,,,,,,c03f02adc0f5c1ef3e8ef545b7baec0b,
AS,aom,av2,0,A1,TimeLapse,3840x2160,60.0000,10,640x360,160,281.235073,30.992731,40.351809,42.418425,14.763724,10.382674,28.714970,27.103574,26.896019,34.185800,30.904641,40.348781,42.403901,0.026306,,,,,,,5d162d096b402817605b5b52d02b3c97,
AS,aom,av2,0,A1,TimeLapse,3840x2160,60.0000,10,640x360,185,114.627526,29.756654,38.911084,40.768333,11.595975,8.875488,18.946586,17.741302,25.594878,32.708370,29.667188,38.907722,40.744546,0.034991,,,,,,,0fdf3ab449a0586b14ff6244ce7aff96,
AS,aom,av2,0,A1,TimeLapse,3840x2160,60.0000,10,640x360,210,46.598325,28.069074,37.095923,38.717582,8.779065,7.346758,11.174319,10.362064,23.903349,30.774656,27.984079,37.090626,38.664255,0.062033,,,,,,,296b8db26a7bd9c34b77b1651d52a27b,
AS,aom,av2,0,A1,TimeLapse,3840x2160,60.0000,10,640x360,235,21.043572,26.126066,35.338252,36.652473,6.578172,6.022693,4.342082,3.850282,22.042358,28.695239,26.046805,35.333107,36.532692,0.159889,,,,,,,14bad0fc8f0ee1abf9abd7c61088f921,
